%quadrature_rules={Fractal,Simpson,Simpson_bisection,'Clenshaw_Curtis','Simpson_equidistant'}; %Other quadratures
Order of Fractal:
-2.180960683
Order of Simpson:
-3.326442126
Order of Simpson_bisection:
-4.173793742
Order of Clenshaw_Curtis:
-2.675548571
Order of Simpson_equidistant:
-1.066181008
ans =
    'Fractal'
ans =
                    229029      6.66550870054294e-10
                    221769      6.36740882242748e-10
                    212301      6.42968733810534e-10
                    199827        7.444758698405e-10
                    184755      8.67368177281946e-10
                    166305      1.14978004894795e-09
                    143823      1.27440735742113e-09
                    121047      2.60700594445495e-09
                    117429      2.74510958409024e-09
                    114351      2.65936561660851e-09
                    110655         2.54681303824e-09
                    105801      2.60896781956177e-09
                     99501      3.01648772627061e-09
                     91911      3.51709156243274e-09
                     82629      4.59708526800995e-09
                     71355       5.3802416410953e-09
                     59949      1.12889264047844e-08
                     58581      1.09868993347639e-08
                     57039      1.06209291361736e-08
                     55209      1.00498712685138e-08
                     52719      1.04628246067051e-08
                     49545      1.20516376878044e-08
                     45717      1.41083441596024e-08
                     41019      1.85071921121605e-08
                     35415      2.26357853017056e-08
                     29931      4.47684632698397e-08
                     29265      4.36840065232147e-08
                     28521       4.2448058179545e-08
                     27585      3.97463026935441e-08
                     26307      4.20389095201479e-08
                     24675      4.77164025514121e-08
                     22737      5.74954485688117e-08
                     20367       7.3075686723989e-08
                     17541      9.48728423599832e-08
                     14955      1.78485901891623e-07
                     14625      1.74239983830038e-07
                     14217      1.66486720132308e-07
                     13737      1.61692893851928e-07
                     13101      1.62248887936034e-07
                     12291      1.86025192083772e-07
                     11271      2.34812310428989e-07
                     10095      2.88228207911967e-07
                      8667      4.05324351249181e-07
                      7479      7.34845843397558e-07
                      7293      7.05257029443018e-07
                      7113      6.92399994894899e-07
                      6831      6.62282521324276e-07
                      6513      7.31448200064211e-07
                      6105      7.85448479034834e-07
                      5589      9.25617692326686e-07
                      4971      1.15022462460201e-06
                      4269      1.57481303192375e-06
                      3711      2.74962775914656e-06
                      3639      2.76142241695254e-06
                      3513      2.82521713501627e-06
                      3417      3.02419124625919e-06
                      3243      3.09335387055354e-06
                      2985      2.71648916128076e-06
                      2733      3.42137466974313e-06
                      2439      3.54168703187163e-06
                      2067      6.77441751373298e-06
                      1821      9.70679217787707e-06
                      1767       1.0710200194608e-05
                      1737       9.1566524804132e-06
                      1689      1.00477489398676e-05
                      1593      1.35625982015664e-05
                      1509      1.34662445416822e-05
                      1389      1.86424097041726e-05
                      1227      2.06188178514255e-05
                      1029      3.16537966179586e-05
                       927      5.02619705932683e-05
                       903      5.04566534189066e-05
                       891      5.02572083708741e-05
                       837      5.11854816230839e-05
                       783      9.70368822166834e-05
                       723      9.88450315971834e-05
                       675      7.82785245448392e-05
                       603      0.000106084122864225
                       513      0.000161157615861218
                       459      0.000231130217847597
                       441      0.000220872684330575
                       417      0.000225125135681847
                       405      0.000316398733972156
                       387      0.000465792213755756
                       351      0.000855586739007097
                       321       0.00108701583951326
                       285       0.00130199183131363
                       231       0.00180124998811448
                       201       0.00165041089281837
                       201       0.00165041089281837
                       195       0.00191552762275549
                       189       0.00285098694589797
                       183       0.00233490488028654
                       153       0.00539550545491646
                       117        0.0417705533588889
                        99        0.0444263905945415
                        75        0.0444351835807745
                        69        0.0457141478412032
                        69        0.0457141478412032
                        69        0.0457141478412032
ans =
    'Simpson'
ans =
                    236481      1.10633724403897e-13
                    230559      1.19459997449667e-13
                    223629      1.20570220474292e-13
                    214935       1.2090328738168e-13
                    202971       1.1696199564426e-13
                    188619      1.11521902823597e-13
                    171159      9.87543380404077e-14
                    149883      1.28230759344206e-13
                    126201      1.29174448915137e-13
                    118083      1.45938816586977e-13
                    115125      1.98618899105441e-13
                    111579      6.89087675809219e-12
                    107121      6.89087675809219e-12
                    101085      6.87172541091741e-12
                     93861      6.92779167366098e-12
                     85041      6.88799017822816e-12
                     74307      6.78063161174691e-12
                     62661      6.82565115539546e-12
                     58947      6.17900175470254e-12
                     57453       9.1951446457017e-12
                     55659      9.14135434015861e-12
                     53379        8.687051078482e-12
                     50355      5.75323122475879e-12
                     46677      5.36848343557494e-12
                     42207      2.77332601328339e-11
                     36831      3.01743630082285e-11
                     31077      2.98637226059384e-11
                     29445      3.01259017732036e-11
                     28713      3.92091914491743e-11
                     27807      3.23776561117484e-11
                     26691      3.35590999434032e-11
                     25089       3.2315150555462e-11
                     23217      1.87805326845591e-12
                     20961      1.18183240971348e-11
                     18237      2.05314654166955e-11
                     15393      3.39971384377691e-11
                     14721      5.65799573859493e-10
                     14301      7.11650627316374e-10
                     13875      6.50752285391576e-10
                     13269      6.52970566505928e-10
                     12489      6.51583731414718e-10
                     11559       3.5382863305955e-11
                     10383      2.42385167492642e-10
                      8961      1.79342096728874e-10
                      7569      2.06200057029093e-10
                      7329      1.79510883935308e-09
                      7167      8.76048361631021e-09
                      6879      5.53205559139514e-09
                      6609      6.20161592079782e-08
                      6201      1.90490700990864e-08
                      5727        2.270116750136e-08
                      5121      4.35215190552896e-08
                      4431      4.41041160259559e-08
                      3717      4.54587817388941e-08
                      3657      4.51729291750524e-08
                      3543      4.07764940146826e-08
                      3453      1.88155968028347e-08
                      3291      4.83786753491255e-07
                      3051      2.26870003727786e-07
                      2799       1.2943826599443e-07
                      2529      1.31145497461738e-07
                      2169      4.99447456725477e-08
                      1839      1.11807018032817e-07
                      1779      4.22812589773169e-07
                      1755      3.96489735654537e-07
                      1707       3.9556883069114e-07
                      1605      3.70681914435567e-06
                      1527        3.820843441249e-06
                      1407      3.81401749632859e-06
                      1275       3.8578264433542e-06
                      1077      4.24303659152248e-07
                       927      2.93764594982981e-07
                       903      6.56174437563273e-08
                       891      7.93186974434867e-08
                       849      3.24656360473075e-06
                       795      3.02296562559312e-05
                       729      3.13636343657886e-05
                       687      3.16035342591281e-05
                       627      3.19242605487657e-05
                       543      3.57115608974334e-05
                       459      9.37009568735547e-06
                       453       5.6771968117153e-06
                       417      1.33096916458686e-05
                       411      1.38374781797901e-05
                       393      0.000270759068719872
                       381      0.000272502750472026
                       321      0.000642643100288609
                       291      0.000639883604901192
                       249      0.000639962759332924
                       201      0.000635301927089715
                       201      0.000635301927089715
                       195      0.000641174612320328
                       189       0.00233839231630339
                       183       0.00225317990312329
                       153       0.00404156683119278
                       117        0.0419977552755631
                        99        0.0421536916912292
                        87        0.0420776389395404
                        69        0.0420779582028634
                        69        0.0420779582028634
ans =
    'Simpson_bisection'
ans =
                     12141       1.4960255256824e-12
                     11709       1.0911271886016e-12
                     11109      2.16053286372642e-11
                     10473      2.17192375195907e-11
                     10005      2.36061725722436e-11
                      9453      2.57395771363633e-11
                      8925      2.73243649928645e-11
                      8565      2.38705166744069e-11
                      8073      2.36303754341805e-11
                      7773      2.60497179382924e-11
                      7425      3.11405345954086e-11
                      7161      2.80954148834667e-11
                      6837      2.50773846133256e-11
                      6537       2.5631718969521e-11
                      6309      3.34452465722279e-11
                      6021      3.69476671480129e-11
                      5793      3.92346155564383e-11
                      5529      2.73486788771038e-11
                      5229      2.29526952999493e-11
                      5025      5.61787283359649e-11
                      4713      8.87049877995594e-11
                      4497      1.00936703439913e-10
                      4257      1.54046220224302e-11
                      4077      1.95335969621624e-11
                      3873      5.22600296370967e-11
                      3705      2.41312858584308e-10
                      3573      1.72234837503282e-10
                      3405      2.05649386408879e-10
                      3273      1.07288011808038e-10
                      3153      2.69817279630047e-10
                      3021      6.67627231276668e-10
                      2877      3.52500584277493e-10
                      2745       2.7036251015744e-10
                      2601      2.65212796168868e-10
                      2457      1.51799572911671e-09
                      2301      2.38679204178638e-09
                      2205       1.7905068538937e-09
                      2085       1.6799177604554e-09
                      1989      8.31010427138068e-10
                      1929      2.33516894709851e-09
                      1821      3.90364357505391e-09
                      1761      4.70717159695155e-09
                      1701      5.86340420660747e-10
                      1653      1.82501769252497e-09
                      1593      4.86669810007001e-09
                      1497      9.12682140974397e-09
                      1449      5.53580430939782e-08
                      1365      5.74865123281754e-08
                      1305      6.28779812106295e-08
                      1245      1.32894233950687e-08
                      1149      8.27437729444824e-09
                      1101       2.1842689157392e-08
                      1041       1.0275515716085e-08
                       993      1.62243267709528e-08
                       957      2.28880658870168e-09
                       897      4.18910397981254e-07
                       861      4.89895567612475e-07
                       813      4.43562200858061e-07
                       777      1.07721251196846e-07
                       741      1.55835302495522e-07
                       729      1.01215783032682e-07
                       657      2.57206384968178e-07
                       621      2.72698874592692e-07
                       585      4.28226681170596e-07
                       573      2.30484679009102e-07
                       537      6.52344929186199e-08
                       501      2.35351823474339e-07
                       489      5.86268554758629e-07
                       453      1.15729364513761e-06
                       429      1.76230723031301e-06
                       417       1.0433707438029e-06
                       417       1.0433707438029e-06
                       405      2.00050446891309e-06
                       357      9.66181975620151e-06
                       357      9.66181975620151e-06
                       345      1.16183420872384e-05
                       297      5.01144343095783e-06
                       297      5.01144343095783e-06
                       297      5.01144343095783e-06
                       273      1.57330704392833e-05
                       273      1.57330704392833e-05
                       261       2.7320715582646e-05
                       249       1.7755131476338e-05
                       237      2.09871398743067e-05
                       225      2.73350463797506e-06
                       213      1.90043852619781e-05
                       189      0.000140348503382293
                       177      0.000178188252225375
                       177      0.000178188252225375
                       165      0.000257767868387715
                       165      0.000257767868387715
                       165      0.000257767868387715
                       153      0.000152526605789516
                       153      0.000152526605789516
                       141      0.000346970388620194
                       117        0.0019574526111068
                       105       0.00146523813178834
                        93       0.00215340688129656
                        93       0.00215340688129656
                        93       0.00215340688129656
ans =
    'Clenshaw_Curtis'
ans =
                     76343      1.81521464526213e-14
                     73923      1.68198788230711e-14
                     70767      3.71924713249427e-14
                     66609      6.04516436908398e-14
                     61585      1.43662859386495e-13
                     55435      2.72948330604095e-13
                     47941      4.12669898253171e-13
                     40349      1.42725831153712e-11
                     39143      2.14437911871812e-11
                     38117      2.99672509029847e-11
                     36885      4.41919834059945e-11
                     35267      7.21104287393359e-11
                     33167      1.31539390491042e-10
                     30637      2.55767518275718e-10
                     27543      5.08088071615731e-10
                     23785      7.67892305297835e-10
                     19983       7.7469675119346e-10
                     19527      1.32054717161267e-09
                     19013      2.09033562681427e-09
                     18403      3.24899990244987e-09
                     17573      5.31663829628215e-09
                     16515      8.85154816110401e-09
                     15239      1.42642981870722e-08
                     13673      2.04759227906415e-08
                     11805      1.55650046185229e-08
                      9977      3.09027952116736e-08
                      9755      4.09086083896781e-08
                      9507       5.3223740525965e-08
                      9195      7.02259826401708e-08
                      8769       9.5321346149646e-08
                      8225       1.2725637582589e-07
                      7579      1.54559997189718e-07
                      6789      1.41391966967941e-07
                      5847      8.58262633185447e-09
                      4985       2.7725750612051e-07
                      4875      3.10434899064571e-07
                      4739      3.46419142316368e-07
                      4579      3.77898930314924e-07
                      4367       3.9239475096986e-07
                      4097      3.43958368065334e-07
                      3757      1.29901091938667e-07
                      3365      3.75495983528928e-07
                      2889       1.1910911696944e-06
                      2493      1.35483070989872e-06
                      2431      1.26113656029325e-06
                      2371      1.12663902135379e-06
                      2277      8.20565855985667e-07
                      2171      3.26730780597639e-07
                      2035      5.29134095650363e-07
                      1863      1.83730988706499e-06
                      1657      3.07915018304961e-06
                      1423      2.00395184163371e-06
                      1237      2.57201713799171e-06
                      1213      3.41056148817076e-06
                      1171      4.96093944157838e-06
                      1139      6.17528618351848e-06
                      1081      8.29300939442223e-06
                       995      1.05181939971666e-05
                       911      1.01726107754052e-05
                       813      4.17265648094967e-06
                       689      1.30428329782051e-05
                       607      2.31500178068389e-05
                       589      2.37011788338792e-05
                       579      2.35644259233281e-05
                       563       2.2563185075819e-05
                       531      1.70701163599296e-05
                       503      7.69148842716394e-06
                       463       1.3847398497413e-05
                       409      5.36008677198829e-05
                       343      7.84588376356865e-05
                       309      4.77708562690582e-05
                       301      3.36946970326824e-05
                       297       2.5606317803184e-05
                       279      1.90496171766363e-05
                       261      7.41263755009158e-05
                       241      0.000135990441575307
                       225      0.000169978242894053
                       201      0.000148429451649168
                       171      0.000101489718707326
                       153      0.000367154364968425
                       147      0.000455150775905133
                       139       0.00054945068926765
                       135      0.000578839946784759
                       129       0.00058897732961366
                       117      0.000430526738665282
                       107      5.73030941035113e-05
                        95      0.000653803762109662
                        77       0.00123160755671203
                        67      6.16183915130852e-05
                        67      6.16183915130852e-05
                        65      0.000381970301223278
                        63      0.000892683590744237
                        61       0.00146001240709281
                        51       0.00418230023452332
                        39      0.000608143599641675
                        33       0.00790374647941328
                        25      0.000717670453584562
                        23        0.0111326592813326
                        23        0.0111326592813326
                        23        0.0111326592813326
ans =
    'Simpson_equidistant'
ans =
                     76343      2.77507631049612e-05
                     73923        2.950412064473e-05
                     70767      3.16604628089467e-05
                     66609      3.41307651278155e-05
                     61585        3.619253842857e-05
                     55435      3.64486101266381e-05
                     47941      3.12070563200373e-05
                     40349      1.63360001298463e-05
                     39143      1.28808840892947e-05
                     38117      9.69592012717291e-06
                     36885      5.58010781720464e-06
                     35267      2.79563891925072e-07
                     33167        8.537670549702e-06
                     30637      1.90641247920231e-05
                     27543      3.14316986602114e-05
                     23785      4.10411391976728e-05
                     19983      3.35569613611475e-05
                     19527       3.0612954562248e-05
                     19013      2.65895551173068e-05
                     18403      2.07513101170287e-05
                     17573      1.07426896769902e-05
                     16515       5.9276527312746e-06
                     15239      3.27027839265304e-05
                     13673       7.6680971130727e-05
                     11805      0.000144748925816451
                      9977      0.000219071094985701
                      9755      0.000227493905425147
                      9507      0.000236449435814967
                      9195       0.00024682292494449
                      8769      0.000258816439997589
                      8225      0.000269011446273226
                      7579      0.000270294707868934
                      6789      0.000248237462372347
                      5847      0.000172075650921089
                      4985      3.99338268593508e-05
                      4875      1.85642884280024e-05
                      4739      9.11098219785744e-06
                      4579      4.32484320677662e-05
                      4367      9.05167874861168e-05
                      4097      0.000152235555151259
                      3757      0.000226489830172316
                      3365      0.000291016826106216
                      2889      0.000290553328135046
                      2493       0.00015442108703706
                      2431      0.000116044723124153
                      2371      7.35028546708372e-05
                      2277      4.69841016920158e-06
                      2171      0.000111295365106401
                      2035      0.000279366109010526
                      1863      0.000546045072255363
                      1657      0.000943587273551538
                      1423       0.00146211609454966
                      1237       0.00183778809048668
                      1213        0.0018760783963398
                      1171       0.00193368682944267
                      1139       0.00196794263986677
                      1081       0.00200336910569787
          
