{
  "annotation": "This file is for calculating the reduced collision integral of the process in Colonna et al. (2008) General numerical algorithm for classical collision integral calculation, Computer Physics Communications 178 (809--816) Fig. 4b",
 "cc": {
  "lower": 6,
  "upper": 14
 },
 "ci_star": {
  "cc": {
   "lower": 6,
   "upper": 14
  },
  "s_max": 2,
  "temperature_star_range": {
   "max": { "value": 1e+3, "unit": "1" },
   "min": { "value": 1e-1, "unit": "1" },
   "step": { "value": 0.1, "unit": "1" }
  }
 },
 "energy_range": {
  "max": { "value": 1e+5, "unit": "eV" },
  "min": { "value": 1e-4, "unit": "eV" },
  "points_per_decade": 20
 },
 "l_max": 2,
 "r": {
  "Vmax": { "value": 20, "unit": "eV" },
  "Vmin": { "value": 1e-3, "unit": "eV" },
  "del": { "value": 1e-14, "unit": "m" },
  "max": { "value": 1e-9, "unit": "m" },
  "min": { "value": 2e-10, "unit": "m" }
 },
 "tolerance": 1e-3
}
