{
  "interaction": {
    "potential": {
      "annotation": "Ungerade He+-He interaction given by Sinha, 1979, Journal of Physics B: Atomic and Molecular Physics 12, 1613",
      "is_neutral": false,
      "lookup_table_xy": {
        "title": "He/He^+ ungerade potential",
        "annotation": "Ungerade He+-He interaction given by Sinha, 1979, Journal of Physics B: Atomic and Molecular Physics 12, 1613",
        "abscissa": {"label": "r", "unit": "m"},
        "ordinate": {"label": "V", "unit": "eV"},
        "data": [
          [4.5000000814619564e-11,  1.6437403238156236e+01],
          [4.7500000859870336e-11,  1.3714797989687085e+01],
          [5.0000000905174007e-11,  1.1377085441500681e+01],
          [5.2500000950424772e-11,  9.3611264296445906e+00],
          [5.5000000995675537e-11,  7.6174558750099628e+00],
          [5.7500001040926301e-11,  6.1065844435224808e+00],
          [6.0000001086177053e-11,  4.7963980099075014e+00],
          [6.2500001131427830e-11,  3.6603271387015379e+00],
          [6.5000001176678595e-11,  2.6760620250824827e+00],
          [6.6000001194800064e-11,  2.3205173355696158e+00],
          [6.8000001230990088e-11,  1.6688184684652354e+00],
          [6.9000001249111556e-11,  1.3706740760913076e+00],
          [7.0000001267233038e-11,  1.0897647978876661e+00],
          [7.1000001285301593e-11,  8.2522736157900334e-01],
          [7.2000001303423062e-11,  5.7624458420408631e-01],
          [7.3000001321544530e-11,  3.4204224408517947e-01],
          [7.4000001339613085e-11,  1.2188625024513719e-01],
          [7.5000001357734554e-11,  -8.4919923789665758e-02],
          [8.0000001448236083e-11,  -9.4073038877976334e-01],
          [8.5000001538737613e-11,  -1.5492580857614504e+00],
          [9.0000001629292056e-11,  -1.9663814834588798e+00],
          [9.5000001719793572e-11,  -2.2359854912761694e+00],
          [1.0000000181029511e-10,  -2.3926398762908097e+00],
          [1.0500000190079663e-10,  -2.4636002769838825e+00],
          [1.1000000199135107e-10,  -2.4703410795052156e+00],
          [1.1500000208185260e-10,  -2.4297496959006892e+00],
          [1.2000000217235411e-10,  -2.3550670043982440e+00],
          [1.2500000226285566e-10,  -2.2566327488932667e+00],
          [1.3000000235341008e-10,  -2.1424786929001862e+00],
          [1.3500000244391161e-10,  -2.0188014334848905e+00],
          [1.4000000253441314e-10,  -1.8903396091315259e+00],
          [1.5000000271546911e-10,  -1.6324757438436044e+00],
          [1.6000000289647217e-10,  -1.3876863935740422e+00],
          [1.7000000307752814e-10,  -1.1654586716905440e+00],
          [1.8000000325853120e-10,  -9.6962610580585729e-01],
          [1.9000000343958714e-10,  -8.0067771415177258e-01],
          [2.0000000362059023e-10,  -6.5721328073713892e-01],
          [2.2000000398264923e-10,  -4.3691332026455371e-01],
          [2.4000000434470821e-10,  -2.8705619791637671e-01],
          [2.6000000470676727e-10,  -1.8748863755545861e-01],
          [2.8000000506882627e-10,  -1.2233999386605238e-01],
          [3.0000000543088533e-10,  -8.0099926986115552e-02],
          [3.2500000588344584e-10,  -4.7690737403081322e-02],
          [3.5000000633605928e-10,  -2.8940465390225680e-02],
          [3.7500000678861984e-10,  -1.8027326683800474e-02],
          [4.0000000724118046e-10,  -1.1601421980140053e-02],
          [4.2500000769379390e-10,  -7.7511732149340871e-03],
          [4.5000000814635446e-10,  -5.3887514200181477e-03],
          [4.7500000859891502e-10,  -3.8955098190816893e-03],
          [5.0000000905147548e-10,  -2.9192277008379857e-03],
          [5.5000000995664954e-10,  -1.7936220347568453e-03],
          [6.0000001086177066e-10,  -1.2030178717658999e-03],
          [6.5000001176694461e-10,  -8.5277790455600474e-04],
          [7.0000001267206573e-10,  -6.2642251180239220e-04],
          [7.5000001357723969e-10,  -4.7221939082264965e-04],
          [8.0000001448241375e-10,  -3.6344592547296828e-04],
          [8.5000001538753476e-10,  -2.8462033313196361e-04],
          [9.0000001629270893e-10,  -2.2620358042510163e-04],
          [9.5000001719783005e-10,  -1.8209000353109267e-04],
          [1.0000000181030039e-09,  -1.4824037136338924e-04],
          [1.1000000199132991e-09,  -1.0116709353101163e-04],
          [1.2000000217235943e-09,  -7.1372257363264510e-05],
          [1.3000000235338892e-09,  -5.1774181007126147e-05],
          [1.4000000253441844e-09,  -3.8461309204221489e-05],
          [1.5000000271544794e-09,  -2.9165763321266034e-05],
          [1.6000000289647746e-09,  -2.2518075880759453e-05],
          [1.7000000307750695e-09,  -1.7662312702147106e-05],
          [1.8000000325853647e-09,  -1.4048722132281808e-05],
          [1.9000000343956601e-09,  -1.1314277056149107e-05],
          [2.0000000362059553e-09,  -9.2142654697519400e-06],
          [2.2500000407317195e-09,  -5.7513715615274442e-06],
          [2.5000000452574833e-09,  -3.7734574689515647e-06],
          [2.7500000497831950e-09,  -2.5777891207217001e-06],
          [3.0000000543089588e-09,  -1.8206594866491527e-06],
          [4.0000000724119627e-09,  -5.7786101599930357e-07],
          [5.0000000905149136e-09,  -2.3831732803361747e-07],
          [6.0000001086179175e-09,  -1.1646473669603594e-07],
          [7.0000001267208685e-09,  -6.4191662118212330e-08],
          [8.0000001448238724e-09,  -3.8857860748116669e-08],
          [9.0000001629268779e-09,  -2.5333801370095667e-08],
          [1.0000000181029827e-08,  -1.7605767439797956e-08],
          [1.5000000271544742e-08,  -5.8232368348017975e-09]
        ]
      },
      "type": "LUT"
    },
    "reduced_mass": { "value": 2.0013, "unit": "amu" }
  }
}
