{
 "interaction": {
  "potential": {
   "is_neutral": false,
   "query": {
     "host": "localhost",
     "port": "3000",
     "target": "/test/magnumpi/by_state",
     "body": {
   	"annotation": "Ungerade He+-He interaction given by Sinha, 1979, Journal of Physics B: Atomic and Molecular Physics 12, 1613",
       "states": [ "He(e=0)", "He^+(e=0)" ],
       "parity": "ungerade"
     }
   }
  },
  "reduced_mass": { "value": 2.0013, "unit": "amu" }
 }
}
