b	E	chi(b,E)
0	0.1	3.141592653589793
1.0000000000000001e-11	0.1	2.9975625931562626
2.0000000000000002e-11	0.1	2.853198268845078
3e-11	0.1	2.7081699154556738
4.0000000000000004e-11	0.1	2.562137343363128
5.000000000000001e-11	0.1	2.414728504298421
6e-11	0.1	2.265556991390945
7e-11	0.1	2.1142019544039714
8.000000000000001e-11	0.1	1.9601903368842373
9.000000000000001e-11	0.1	1.8029903555025513
1.0000000000000002e-10	0.1	1.6420055631463741
1.1000000000000001e-10	0.1	1.4765245370333986
1.2e-10	0.1	1.3058128100966682
1.3000000000000002e-10	0.1	1.128759615372172
1.4e-10	0.1	0.9442110299327604
1.5000000000000002e-10	0.1	0.7506710008027162
1.6000000000000002e-10	0.1	0.5462664328460387
1.7e-10	0.1	0.3283796263563441
1.8000000000000002e-10	0.1	0.09358479333661496
1.9000000000000002e-10	0.1	-0.1629640306682707
2.0000000000000003e-10	0.1	-0.44859729932061354
2.1000000000000002e-10	0.1	-0.7748569711819373
2.2000000000000002e-10	0.1	-1.1622558825600873
2.3000000000000003e-10	0.1	-1.6524785025838424
2.4e-10	0.1	-2.3568127604976015
2.5e-10	0.1	-3.8675461338231854
2.6000000000000003e-10	0.1	-0.9301624298385711
2.7000000000000005e-10	0.1	-0.5349252033317682
2.8e-10	0.1	-0.36637748385511637
2.9000000000000003e-10	0.1	-0.26878628162366835
3.0000000000000005e-10	0.1	-0.2050652077603181
3.1e-10	0.1	-0.16051835009204396
3.2000000000000003e-10	0.1	-0.1280763096541242
3.3000000000000005e-10	0.1	-0.10370171554587149
3.4e-10	0.1	-0.08499113084567389
3.5000000000000003e-10	0.1	-0.07030496212887893
3.6000000000000005e-10	0.1	-0.05869306786069162
3.7e-10	0.1	-0.04934903279095826
3.8000000000000003e-10	0.1	-0.04175629369779532
3.9000000000000005e-10	0.1	-0.03557775795509066
4.0000000000000007e-10	0.1	-0.03047109326000763
4.1000000000000003e-10	0.1	-0.02627247045451986
4.2000000000000005e-10	0.1	-0.022723312425201314
4.3000000000000007e-10	0.1	-0.019741299693729175
4.4000000000000003e-10	0.1	-0.0172501067304891
4.5000000000000005e-10	0.1	-0.01510037901710648
4.6000000000000007e-10	0.1	-0.013312819605190818
4.7e-10	0.1	-0.011725817803290184
4.8e-10	0.1	-0.010429876129791626
4.900000000000001e-10	0.1	-0.009253597837452165
5e-10	0.1	-0.0082482207091501