{
  "interaction": {
   "potential": {
    "type": "HulburtHirschfelder",
    "annotation": "Sourd 2006, J.Phys.D: Appl. Phys. 39 1105, Table 12",
    "phi0": { "value": 3.6736, "unit": "eV" },
    "re": { "value": 1.096e-10, "unit": "m" },
    "alpha": 1.97234,
    "beta": 0.567707,
    "gamma": 1.63760
   },
   "reduced_mass": { "value": 0.9398, "unit": "amu"}
  }
}
