LXCat, www.lxcat.net
Generated on 10 Jul 2019. All rights reserved.

RECOMMENDED REFERENCE FORMAT
- Viehland database, www.lxcat.net, retrieved on July 10, 2019.
Be aware that some databases and solvers can additionally have instructions how to reference corresponding data.
Please check below in the headers of databases.

xxxxxxxxxxxxxxxxxxxxxxxxxxxxxxxxxxxxxxxxxxxxxxxxxxxxxxxxxxxxxxxxxxxxxxxxxxxxxxxxxxxxxxxxxxxxxxxxxxxxxxxxxxxxxxxxxxxxxxxx
DATABASE:         Viehland database
PERMLINK:         www.lxcat.net/Viehland
DESCRIPTION:      The data here are from the Gaseous Ion Transport and Rate Coefficient Database, Software Release 4.1
                  (March, 2006), as extended and updated on a regular basis.
CONTACT:          Larry A. Viehland, Viehland@Chatham.edu
HOW TO REFERENCE: L. A. Viehland and C. C. Kirkpatrick, Int. J. Mass Spectrom. Ion Proc. 149/150 (1995) 555.
xxxxxxxxxxxxxxxxxxxxxxxxxxxxxxxxxxxxxxxxxxxxxxxxxxxxxxxxxxxxxxxxxxxxxxxxxxxxxxxxxxxxxxxxxxxxxxxxxxxxxxxxxxxxxxxxxxxxxxxx

************************************************************************************************************************

COMMENT: Ab Initio Potentials of Wright et al.

********************************************************** He **********************************************************

SPECIES: He^+(2S1/2) / He
PROCESS: Interaction potential (Phi)
COMMENT: 2-SIGMA-g-+ Potential of L. A. Viehland, R. Johnsen, B. R. Gray and T. G. Wright,  J.
COMMENT: Chem. Phys. 144 (2016) 074306.
UPDATED: 2018-11-02 15:59:09
COLUMNS: Distance (Bohr) | Interaction potential (Hartee)
-----------------------------
 1.511781e+0	6.713898e-1
 1.606267e+0	5.718335e-1
 1.700754e+0	4.865126e-1
 1.795240e+0	4.144149e-1
 1.889726e+0	3.535758e-1
 1.984212e+0	3.022067e-1
 2.078699e+0	2.587806e-1
 2.173185e+0	2.220148e-1
 2.267671e+0	1.908362e-1
 2.362158e+0	1.643492e-1
 2.456644e+0	1.418060e-1
 2.551130e+0	1.225822e-1
 2.645617e+0	1.061561e-1
 2.834589e+0	8.002471e-2
 3.023562e+0	6.070958e-2
 3.212534e+0	4.631288e-2
 3.401507e+0	3.549497e-2
 3.590480e+0	2.730462e-2
 3.779452e+0	2.106159e-2
 4.157397e+0	1.258728e-2
 4.535343e+0	7.523100e-3
 4.913288e+0	4.465823e-3
 5.291233e+0	2.613008e-3
 5.669178e+0	1.492006e-3
 6.141610e+0	6.974311e-4
 6.614041e+0	2.847102e-4
 7.086473e+0	7.710910e-5
 7.558904e+0	-2.172538e-5
 8.031336e+0	-6.400657e-5
 8.503768e+0	-7.772780e-5
 8.976199e+0	-7.772472e-5
 9.448631e+0	-7.174501e-5
 1.039349e+1	-5.546422e-5
 1.133836e+1	-4.110913e-5
 1.228322e+1	-3.040523e-5
 1.322808e+1	-2.275027e-5
 1.417295e+1	-1.728694e-5
 1.511781e+1	-1.334429e-5
 1.606267e+1	-1.045673e-5
 1.700754e+1	-8.308403e-6
 1.795240e+1	-6.684929e-6
 1.889726e+1	-5.439960e-6
 2.078699e+1	-3.710824e-6
 2.267671e+1	-2.618124e-6
 2.456644e+1	-1.899952e-6
 2.645617e+1	-1.412090e-6
 2.834589e+1	-1.071256e-6
 3.023562e+1	-8.273170e-7
 3.212534e+1	-6.490250e-7
 3.401507e+1	-5.162730e-7
 3.590480e+1	-4.158000e-7
 3.779452e+1	-3.386250e-7
 4.251884e+1	-2.113620e-7
 4.724315e+1	-1.386720e-7
 5.196747e+1	-9.473200e-8
 5.669178e+1	-6.690800e-8
 7.558904e+1	-2.123600e-8
 9.448631e+1	-8.758000e-9
 1.133836e+2	-4.280000e-9
 1.322808e+2	-2.359000e-9
 1.511781e+2	-1.428000e-9
 1.700754e+2	-9.310000e-10
 1.889726e+2	-6.470000e-10
 2.834589e+2	-2.140000e-10
-----------------------------

SPECIES: He^+(2S1/2) / He
PROCESS: Interaction potential (Phi)
COMMENT: 2-SIGMA-u-+ potential of L. A. Viehland, R. Johnsen, B. R. Gray and T. G. Wright,  J.
COMMENT: Chem. Phys. 144 (2016) 074306.
UPDATED: 2018-11-02 15:59:49
COLUMNS: Distance (Bohr) | Interaction potential (Hartee)
-----------------------------
 8.503768e-1	6.040634e-1
 8.976199e-1	5.040095e-1
 9.448631e-1	4.181002e-1
 9.921062e-1	3.440150e-1
 1.039349e+0	2.799363e-1
 1.086593e+0	2.244128e-1
 1.133836e+0	1.762644e-1
 1.181079e+0	1.345145e-1
 1.228322e+0	9.834346e-2
 1.247219e+0	8.527744e-2
 1.285014e+0	6.132795e-2
 1.303911e+0	5.037134e-2
 1.322808e+0	4.004812e-2
 1.341706e+0	3.032655e-2
 1.360603e+0	2.117660e-2
 1.379500e+0	1.256982e-2
 1.398397e+0	4.479237e-3
 1.417295e+0	-3.120750e-3
 1.511781e+0	-3.457120e-2
 1.606267e+0	-5.693418e-2
 1.700754e+0	-7.226318e-2
 1.795240e+0	-8.217095e-2
 1.889726e+0	-8.792789e-2
 1.984212e+0	-9.053564e-2
 2.078699e+0	-9.078336e-2
 2.173185e+0	-8.929165e-2
 2.267671e+0	-8.654711e-2
 2.362158e+0	-8.292972e-2
 2.456644e+0	-7.873464e-2
 2.551130e+0	-7.418958e-2
 2.645617e+0	-6.946870e-2
 2.834589e+0	-5.999238e-2
 3.023562e+0	-5.099653e-2
 3.212534e+0	-4.282981e-2
 3.401507e+0	-3.563310e-2
 3.590480e+0	-2.942436e-2
 3.779452e+0	-2.415214e-2
 4.157397e+0	-1.605627e-2
 4.535343e+0	-1.054912e-2
 4.913288e+0	-6.890080e-3
 5.291233e+0	-4.495912e-3
 5.669178e+0	-2.943618e-3
 6.141610e+0	-1.752602e-3
 6.614041e+0	-1.063542e-3
 7.086473e+0	-6.624920e-4
 7.558904e+0	-4.263444e-4
 8.031336e+0	-2.848504e-4
 8.503768e+0	-1.980330e-4
 8.976199e+0	-1.431573e-4
 9.448631e+0	-1.072796e-4
 1.039349e+1	-6.591439e-5
 1.133836e+1	-4.421009e-5
 1.228322e+1	-3.133901e-5
 1.322808e+1	-2.302060e-5
 1.417295e+1	-1.735374e-5
 1.511781e+1	-1.335639e-5
 1.606267e+1	-1.045960e-5
 1.700754e+1	-8.312828e-6
 1.795240e+1	-6.691684e-6
 1.889726e+1	-5.447733e-6
 2.078699e+1	-3.717822e-6
 2.267671e+1	-2.622882e-6
 2.456644e+1	-1.902666e-6
 2.645617e+1	-1.413427e-6
 2.834589e+1	-1.071822e-6
 3.023562e+1	-8.275240e-7
 3.212534e+1	-6.490780e-7
 3.401507e+1	-5.162810e-7
 3.590480e+1	-4.157920e-7
 3.779452e+1	-3.386180e-7
 4.251884e+1	-2.113590e-7
 4.724315e+1	-1.386720e-7
 5.196747e+1	-9.473200e-8
 5.669178e+1	-6.690800e-8
 7.558904e+1	-2.123600e-8
 9.448631e+1	-8.758000e-9
 1.133836e+2	-4.280000e-9
 1.322808e+2	-2.359000e-9
 1.511781e+2	-1.428000e-9
 1.700754e+2	-9.310000e-10
 1.889726e+2	-6.470000e-10
 2.834589e+2	-2.140000e-10
-----------------------------
xxxxxxxxxxxxxxxxxxxxxxxxxxxxxxxxxxxxxxxxxxxxxxxxxxxxxxxxxxxxxxxxxxxxxxxxxxxxxxxxxxxxxxxxxxxxxxxxxxxxxxxxxxxxxxxxxxxxxxxx