{
    "interaction": {
        "potential": {
            "type": "LXCatJSON",
            "record": {
                "@version": "1.1",
                "@created": "2019-07-09T21:23:14Z",
                "@message": "ATTENTION: downloading in xml format in under development. Do not use this file.",
                "References": {
                    "Source": "LXCat, www.lxcat.net. Generated on 09 Jul 2019. All rights reserved.",
                    "Reference": [
                        "- Viehland database, www.lxcat.net, retrieved on July 9, 2019.",
                        "Be aware that some databases and solvers can additionally have instructions how to reference corresponding data. Please check below in the headers of databases."
                    ]
                },
                "Database": {
                    "@name": "Viehland database",
                    "@id": "Viehland",
                    "Permlink": "http://www.lxcat.net/Viehland",
                    "Description": "The data here are from the Gaseous Ion Transport and Rate Coefficient Database, Software Release 4.1 (March, 2006), as extended and updated on a regular basis.",
                    "Contact": "Larry A. Viehland, Viehland@Chatham.edu",
                    "HowToReference": "L. A. Viehland and C. C. Kirkpatrick, Int. J. Mass Spectrom. Ion Proc. 149/150 (1995) 555.",
                    "LXCatUrl": "http://www.lxcat.net/contributors/#d26",
                    "Groups": {
                        "Group": {
                            "@id": "Rare Gas Ions in Their Parent Gas",
                            "Description": "Ab Initio Potentials of Wright et al.",
                            "Processes": [
                                {
                                    "Species": [
                                        "He^+(2S1/2)",
                                        "He"
                                    ],
                                    "Parameters": [],
                                    "Comment": "2-SIGMA-g-+ Potential of L. A. Viehland, R. Johnsen, B. R. Gray and T. G. Wright,  J. Chem. Phys. 144 (2016) 074306.",
                                    "Updated": "2018-11-02T15:59:09Z",
                                    "Values": {
                                        "Axes": [
                                            {
                                                "label": "r",
                                                "unit": "Bohr"
                                            },
                                            {
                                                "label": "V",
                                                "unit": "Hartree"
                                            }
                                        ],
                                        "Data": [
                                            [
                                                1.511781e+0,
                                                6.713898e-1
                                            ],
                                            [
                                                1.606267e+0,
                                                5.718335e-1
                                            ],
                                            [
                                                1.700754e+0,
                                                4.865126e-1
                                            ],
                                            [
                                                1.795240e+0,
                                                4.144149e-1
                                            ],
                                            [
                                                1.889726e+0,
                                                3.535758e-1
                                            ],
                                            [
                                                1.984212e+0,
                                                3.022067e-1
                                            ],
                                            [
                                                2.078699e+0,
                                                2.587806e-1
                                            ],
                                            [
                                                2.173185e+0,
                                                2.220148e-1
                                            ],
                                            [
                                                2.267671e+0,
                                                1.908362e-1
                                            ],
                                            [
                                                2.362158e+0,
                                                1.643492e-1
                                            ],
                                            [
                                                2.456644e+0,
                                                1.418060e-1
                                            ],
                                            [
                                                2.551130e+0,
                                                1.225822e-1
                                            ],
                                            [
                                                2.645617e+0,
                                                1.061561e-1
                                            ],
                                            [
                                                2.834589e+0,
                                                8.002471e-2
                                            ],
                                            [
                                                3.023562e+0,
                                                6.070958e-2
                                            ],
                                            [
                                                3.212534e+0,
                                                4.631288e-2
                                            ],
                                            [
                                                3.401507e+0,
                                                3.549497e-2
                                            ],
                                            [
                                                3.590480e+0,
                                                2.730462e-2
                                            ],
                                            [
                                                3.779452e+0,
                                                2.106159e-2
                                            ],
                                            [
                                                4.157397e+0,
                                                1.258728e-2
                                            ],
                                            [
                                                4.535343e+0,
                                                7.523100e-3
                                            ],
                                            [
                                                4.913288e+0,
                                                4.465823e-3
                                            ],
                                            [
                                                5.291233e+0,
                                                2.613008e-3
                                            ],
                                            [
                                                5.669178e+0,
                                                1.492006e-3
                                            ],
                                            [
                                                6.141610e+0,
                                                6.974311e-4
                                            ],
                                            [
                                                6.614041e+0,
                                                2.847102e-4
                                            ],
                                            [
                                                7.086473e+0,
                                                7.710910e-5
                                            ],
                                            [
                                                7.558904e+0,
                                                -2.172538e-5
                                            ],
                                            [
                                                8.031336e+0,
                                                -6.400657e-5
                                            ],
                                            [
                                                8.503768e+0,
                                                -7.772780e-5
                                            ],
                                            [
                                                8.976199e+0,
                                                -7.772472e-5
                                            ],
                                            [
                                                9.448631e+0,
                                                -7.174501e-5
                                            ],
                                            [
                                                1.039349e+1,
                                                -5.546422e-5
                                            ],
                                            [
                                                1.133836e+1,
                                                -4.110913e-5
                                            ],
                                            [
                                                1.228322e+1,
                                                -3.040523e-5
                                            ],
                                            [
                                                1.322808e+1,
                                                -2.275027e-5
                                            ],
                                            [
                                                1.417295e+1,
                                                -1.728694e-5
                                            ],
                                            [
                                                1.511781e+1,
                                                -1.334429e-5
                                            ],
                                            [
                                                1.606267e+1,
                                                -1.045673e-5
                                            ],
                                            [
                                                1.700754e+1,
                                                -8.308403e-6
                                            ],
                                            [
                                                1.795240e+1,
                                                -6.684929e-6
                                            ],
                                            [
                                                1.889726e+1,
                                                -5.439960e-6
                                            ],
                                            [
                                                2.078699e+1,
                                                -3.710824e-6
                                            ],
                                            [
                                                2.267671e+1,
                                                -2.618124e-6
                                            ],
                                            [
                                                2.456644e+1,
                                                -1.899952e-6
                                            ],
                                            [
                                                2.645617e+1,
                                                -1.412090e-6
                                            ],
                                            [
                                                2.834589e+1,
                                                -1.071256e-6
                                            ],
                                            [
                                                3.023562e+1,
                                                -8.273170e-7
                                            ],
                                            [
                                                3.212534e+1,
                                                -6.490250e-7
                                            ],
                                            [
                                                3.401507e+1,
                                                -5.162730e-7
                                            ],
                                            [
                                                3.590480e+1,
                                                -4.158000e-7
                                            ],
                                            [
                                                3.779452e+1,
                                                -3.386250e-7
                                            ],
                                            [
                                                4.251884e+1,
                                                -2.113620e-7
                                            ],
                                            [
                                                4.724315e+1,
                                                -1.386720e-7
                                            ],
                                            [
                                                5.196747e+1,
                                                -9.473200e-8
                                            ],
                                            [
                                                5.669178e+1,
                                                -6.690800e-8
                                            ],
                                            [
                                                7.558904e+1,
                                                -2.123600e-8
                                            ],
                                            [
                                                9.448631e+1,
                                                -8.758000e-9
                                            ],
                                            [
                                                1.133836e+2,
                                                -4.280000e-9
                                            ],
                                            [
                                                1.322808e+2,
                                                -2.359000e-9
                                            ],
                                            [
                                                1.511781e+2,
                                                -1.428000e-9
                                            ],
                                            [
                                                1.700754e+2,
                                                -9.310000e-10
                                            ],
                                            [
                                                1.889726e+2,
                                                -6.470000e-10
                                            ],
                                            [
                                                2.834589e+2,
                                                -2.140000e-10
                                            ]
                                        ]
                                    }
                                }
                            ]
                        }
                    }
                }
            }
        },
        "reduced_mass": { "value": 2.0013, "unit": "amu" }
    }
}
