{
    "interaction": {
        "potential": {
            "type": "LXCatJSON",
            "file": "$MAGNUMPI_INPUTDATA_DIR/ideas/lxcat/He_He+/input/heplus_he_gerade_external_int.json"
        },
        "reduced_mass": { "value": 2.0013, "unit": "amu" }
    }
}
